{
  "ExtendedData": {
    "inputs": [
      "https://api.n11.com/ws/CategoryService.wsdl"
    ],
    "collectionTypes": [
      "System.Array",
      "System.Collections.Generic.Dictionary`2"
    ],
    "namespaceMappings": [
      "*, N11CategoryServiceReference"
    ],
    "references": [
      "Microsoft.Bcl.AsyncInterfaces, {Microsoft.Bcl.AsyncInterfaces, 5.0.0}",
      "Microsoft.Extensions.ObjectPool, {Microsoft.Extensions.ObjectPool, 5.0.10}",
      "System.Data.SqlClient, {System.Data.SqlClient, 4.8.3}",
      "System.Drawing.Common, {System.Drawing.Common, 5.0.0}",
      "System.Reflection.DispatchProxy, {System.Reflection.DispatchProxy, 4.7.1}",
      "System.Security.AccessControl, {System.Security.AccessControl, 5.0.0}",
      "System.Security.Cryptography.Xml, {System.Security.Cryptography.Xml, 5.0.0}",
      "System.Security.Permissions, {System.Security.Permissions, 5.0.0}",
      "System.Security.Principal.Windows, {System.Security.Principal.Windows, 5.0.0}",
      "System.ServiceModel, {System.ServiceModel.Primitives, 4.9.0}",
      "System.ServiceModel.Duplex, {System.ServiceModel.Duplex, 4.9.0}",
      "System.ServiceModel.Http, {System.ServiceModel.Http, 4.9.0}",
      "System.ServiceModel.NetTcp, {System.ServiceModel.NetTcp, 4.9.0}",
      "System.ServiceModel.Primitives, {System.ServiceModel.Primitives, 4.9.0}",
      "System.ServiceModel.Security, {System.ServiceModel.Security, 4.9.0}",
      "System.Windows.Extensions, {System.Windows.Extensions, 5.0.0}"
    ],
    "targetFramework": "net5.0",
    "typeReuseMode": "All"
  }
}