{
  "profiles": {
    "ECommerce.Job.Token": {
      "commandName": "Project",
      "launchBrowser": true,
      "environmentVariables": {
        "ASPNETCORE_ENVIRONMENT": "Development"
      },
      "applicationUrl": "https://localhost:63970;http://localhost:63971"
    }
  }
}