{
  "profiles": {
    "ECommerce.Feed.Job": {
      "commandName": "Project",
      "launchBrowser": true,
      "environmentVariables": {
        "ASPNETCORE_ENVIRONMENT": "Development"
      },
      "applicationUrl": "https://localhost:63944;http://localhost:63945"
    }
  }
}