{
  "profiles": {
    "ECommerce.MarketPlace.Pazarama.Common": {
      "commandName": "Project",
      "launchBrowser": true,
      "environmentVariables": {
        "ASPNETCORE_ENVIRONMENT": "Development"
      },
      "applicationUrl": "https://localhost:53548;http://localhost:53549"
    }
  }
}