{
  "profiles": {
    "ECommerce.Invoice.Job": {
      "commandName": "Project",
      "launchBrowser": true,
      "environmentVariables": {
        "ASPNETCORE_ENVIRONMENT": "Development"
      },
      "applicationUrl": "https://localhost:59407;http://localhost:59408"
    }
  }
}