{
  "project_info": {
    "project_number": "683694977504",
    "project_id": "helpy-10cb2",
    "storage_bucket": "helpy-10cb2.appspot.com"
  },
  "client": [
    {
      "client_info": {
        "mobilesdk_app_id": "1:683694977504:android:5518fe7e447c421b1f7b85",
        "android_client_info": {
          "package_name": "com.helpy.app"
        }
      },
      "oauth_client": [
        {
          "client_id": "683694977504-fra6dslr9qt57l7o8cfngbcg0650av71.apps.googleusercontent.com",
          "client_type": 3
        }
      ],
      "api_key": [
        {
          "current_key": "AIzaSyDnp2XKYK5gQvUnDoK3l-RQwhIkLZMlTFw"
        }
      ],
      "services": {
        "appinvite_service": {
          "other_platform_oauth_client": [
            {
              "client_id": "683694977504-fra6dslr9qt57l7o8cfngbcg0650av71.apps.googleusercontent.com",
              "client_type": 3
            },
            {
              "client_id": "683694977504-pjeqkn26n65pcvbp8tuktr5jgmhof522.apps.googleusercontent.com",
              "client_type": 2,
              "ios_info": {
                "bundle_id": "com.Helpy.App"
              }
            }
          ]
        }
      }
    }
  ],
  "configuration_version": "1"
}