<svg xmlns="http://www.w3.org/2000/svg" width="24" height="26" viewBox="0 0 24 26">
    <path fill="#000" fill-rule="nonzero" d="M11.283.297a5.646 5.646 0 0 0-5.642 5.641 5.646 5.646 0 0 0 5.642 5.642 5.646 5.646 0 0 0 5.641-5.642A5.646 5.646 0 0 0 11.283.297zm0 .594a5.043 5.043 0 0 1 5.048 5.047 5.043 5.043 0 0 1-5.048 5.048 5.043 5.043 0 0 1-5.048-5.048A5.043 5.043 0 0 1 11.283.891zm.297 12.174C5.17 13.065 0 18.235 0 24.645v1.187h.594v-1.188A10.956 10.956 0 0 1 11.58 13.658a10.956 10.956 0 0 1 10.986 10.986v1.188h.594v-1.188c0-6.41-5.17-11.58-11.58-11.58z"/>
</svg>
