<svg xmlns="http://www.w3.org/2000/svg" width="25" height="28" viewBox="0 0 25 28">
    <g fill="#000" fill-rule="nonzero" stroke="#000" stroke-width=".05">
        <path d="M1 3.889v11.555C1 21.826 6.174 27 12.556 27c6.382 0 11.555-5.174 11.555-11.556V3.89H1zM12.584 26.45c-6.078 0-11.006-4.928-11.006-11.007V4.467H23.59v10.977c0 6.08-4.928 11.007-11.007 11.007z"/>
        <path d="M18.304 6.258C18.044 3.31 15.59 1 12.584 1c-3.004 0-5.46 2.311-5.72 5.258a.57.57 0 0 0 .232 1.098.58.58 0 0 0 .346-1.04c.202-2.658 2.427-4.738 5.142-4.738 2.716 0 4.912 2.08 5.172 4.709a.568.568 0 0 0-.26.49c0 .319.26.579.577.579a.58.58 0 0 0 .578-.578.664.664 0 0 0-.347-.52z"/>
    </g>
</svg>
