<?xml version="1.0" encoding="utf-8"?>
<!-- Generator: Adobe Illustrator 16.0.0, SVG Export Plug-In . SVG Version: 6.00 Build 0)  -->
<!DOCTYPE svg PUBLIC "-//W3C//DTD SVG 1.1//EN" "http://www.w3.org/Graphics/SVG/1.1/DTD/svg11.dtd">
<svg version="1.1" id="Layer_1" xmlns="http://www.w3.org/2000/svg" xmlns:xlink="http://www.w3.org/1999/xlink" x="0px" y="0px"
	 width="70px" height="70px" viewBox="0 0 70 70" enable-background="new 0 0 70 70" xml:space="preserve">
<g>
	<defs>
		<rect id="SVGID_1_" x="0.189" width="69.189" height="69.189"/>
	</defs>
	<clipPath id="SVGID_2_">
		<use xlink:href="#SVGID_1_"  overflow="visible"/>
	</clipPath>
	<g clip-path="url(#SVGID_2_)">
		<path fill="#FDC040" d="M44.5,33l3.5-5.5l5-2.5c0.666-0.167,2.1-0.4,2.5,0s6.166,8.167,9,12l2.5,4.5c-0.5,1-1.6,3.1-2,3.5
			s-4.166,2.166-6,3c-1,0.166-3.1,0.5-3.5,0.5S50.334,42.166,48,39l-2.625-4.5L44.5,33z"/>
		<path fill="#FDC040" d="M55.5,48.5c-0.4,0-5.166-6.334-7.5-9.5l-2.625-4.5H43.5h-5c-0.5,0-3,1-4,1.5l-3,1.5c-1,0.5-2,1.5-2.5,2
			s-1.5,2-1.5,2.5s0,1.5,0.5,2s1.5,1,2,1h3c0.8,0,3-1,4-1.5c0.334,0.166,1.1,0.6,1.5,1s3.834,2.834,5.5,4l4,4
			c0.666,0.334,2.1,0.9,2.5,0.5s1.834-1.5,2.5-2l1.5-1L55.5,48.5z"/>
		<path fill="#FDC040" d="M15.5,54c0,0.8,1.333,2.334,2,3l3.5,3l2,1.5l2,2c0.667,0.334,2,1.1,2,1.5s2,0.834,3,1
			c0.5-0.334,1.6-1.1,2-1.5c0.5-0.5,0.5-0.5,0.5-1.5s0-2-0.5-3s-0.5-3-1-3.5s-2.5-1.5-2.5-2s-1.5-2.5-2-3s-1.5-2.5-2-3s-2-1.5-3-1
			s-4,3-4.5,3.5C16.6,51.4,15.833,53.166,15.5,54z"/>
		<path fill="#FDC040" d="M25,5c3,4.167,11.6,12.3,22,11.5l-2,6L42,25l-9.5,3L25,25.5l-4.5-8L21,11l2.5-4.5L25,5z"/>
		<path fill="#3BB77E" d="M33.666,17.975c-0.528,0-1.175-0.077-1.619-0.571c-0.154-0.173-0.289-0.335-0.42-0.471
			c-1.056-1.111-2.875,0.432-1.772,1.875l0.266,0.343c0.173,0.216,0.486,0.467,0.933,0.752c0.436,0.277,0.921,0.478,1.46,0.598
			v1.906c0,0.656,0.535,1.196,1.19,1.196c0.659,0,1.218-0.54,1.218-1.196V20.49c0.864-0.201,1.603-0.621,2.208-1.258
			c0.609-0.637,0.914-1.481,0.914-2.535c0-0.717-0.139-1.315-0.417-1.798c-0.277-0.479-0.616-0.814-1.021-1.003
			c-0.408-0.189-0.852-0.355-1.341-0.498c-0.485-0.143-0.928-0.243-1.337-0.305c-0.405-0.059-0.744-0.182-1.021-0.363
			c-0.278-0.186-0.416-0.425-0.416-0.722c0-1.419,2.081-1.246,2.998-0.475c1.352,1.138,2.867-0.945,1.298-2.122l-0.181-0.162
			c-0.124-0.096-0.34-0.216-0.652-0.367c-0.308-0.15-0.654-0.262-1.032-0.343V7.389V6.887c0-0.656-0.536-1.196-1.195-1.196
			c-0.655,0-1.194,0.54-1.194,1.196v1.635c-0.878,0.174-1.607,0.61-2.111,1.254c-0.509,0.656-0.767,1.381-0.767,2.191
			c0,0.814,0.189,1.481,0.566,2.01c0.378,0.528,0.836,0.898,1.38,1.115c0.539,0.216,1.079,0.39,1.618,0.517
			c0.543,0.132,1.002,0.274,1.379,0.44c0.378,0.162,0.567,0.39,0.567,0.687C35.164,17.562,34.663,17.975,33.666,17.975z"/>
		<path fill="#3BB77E" d="M67.949,39.033L56.846,24.811c-0.748-0.96-1.881-1.511-3.11-1.511c-0.868,0-1.688,0.275-2.378,0.798
			l-7.268,5.54c-0.831,0.634-1.362,1.554-1.496,2.59c-0.02,0.154-0.029,0.309-0.031,0.462c-2.77-0.21-5.631,0.001-8.41,1.807
			l-0.125,0.081l-7.03-1.075c0.015-0.244,0.007-0.49-0.025-0.737c-0.134-1.034-0.665-1.952-1.495-2.585l-7.269-5.534
			c-1.703-1.303-4.166-0.986-5.49,0.707l-2.647,3.391c-0.463,0.593-0.357,1.45,0.236,1.913c0.593,0.463,1.45,0.357,1.913-0.236
			l2.646-3.39c0.4-0.512,1.172-0.613,1.688-0.218l7.27,5.536c0.246,0.188,0.404,0.46,0.443,0.768
			c0.04,0.308-0.043,0.612-0.233,0.856L12.931,48.197c-0.398,0.511-1.171,0.61-1.686,0.221l-7.267-5.541
			c-0.248-0.188-0.406-0.462-0.446-0.77c-0.039-0.307,0.044-0.608,0.235-0.854l1.888-2.418c0.463-0.594,0.358-1.449-0.236-1.913
			c-0.593-0.463-1.449-0.357-1.913,0.235L1.62,39.576c-0.643,0.822-0.923,1.844-0.791,2.879c0.133,1.036,0.665,1.956,1.497,2.59
			l7.269,5.542c0.708,0.536,1.544,0.796,2.375,0.796c0.48,0,0.958-0.088,1.409-0.258l0.94,1.288
			c-0.511,0.933-0.591,2.054-0.18,3.135c0.587,1.546,1.974,2.595,3.473,2.645c0.047,0.22,0.111,0.44,0.199,0.658
			c0.604,1.498,1.984,2.517,3.468,2.585c0.007,0.038,0.012,0.077,0.02,0.116c0.282,1.371,1.334,2.542,2.68,2.983
			c0.343,0.113,0.688,0.17,1.031,0.181c0.131,0.552,0.405,1.085,0.827,1.554c0.656,0.729,1.615,1.197,2.667,1.196
			c0.764,0,1.577-0.247,2.358-0.819l1.543,1.443c0.786,0.733,1.776,1.1,2.756,1.1c0.995,0,1.978-0.377,2.729-1.129
			c0.449-0.449,0.796-0.982,1.021-1.545c0.383,0.117,0.757,0.172,1.116,0.172c1.01,0,1.902-0.427,2.541-1.085
			c0.523-0.538,0.897-1.255,1.063-2.02c0.056,0.003,0.111,0.005,0.166,0.006c0.014,0,0.027,0,0.041,0
			c1.075,0,2.106-0.417,2.834-1.146c0.511-0.512,0.861-1.141,1.029-1.826c0.26,0.051,0.521,0.077,0.781,0.077
			c0.328,0,0.656-0.041,0.979-0.124c1.313-0.336,2.328-1.363,2.648-2.68c0.294-1.215-0.01-2.495-0.836-3.658
			c2.141-1.722,3.006-2.57,3.983-4.156c0.668,0.491,1.481,0.762,2.34,0.762c0.87,0,1.692-0.277,2.377-0.801l7.271-5.536
			c0.829-0.632,1.36-1.55,1.494-2.584C68.871,40.882,68.592,39.858,67.949,39.033z M18.325,55.188
			c-0.208,0.188-0.411,0.284-0.602,0.284c-0.392,0-0.847-0.392-1.037-0.892c-0.172-0.454-0.092-0.834,0.24-1.129l0.004-0.004
			l0.004-0.003l4.591-4.081c0.384-0.341,0.771-0.521,1.118-0.521c0.508,0,0.889,0.386,1.026,0.745
			c0.147,0.383,0.059,0.725-0.262,1.016l-0.8,0.722l-0.002,0.002c-0.004,0.003-0.008,0.007-0.012,0.011
			c-0.029,0.025-0.058,0.053-0.087,0.078L18.325,55.188z M22.037,58.444c-0.207,0.183-0.404,0.271-0.603,0.271
			c-0.414,0-0.895-0.389-1.095-0.886c-0.221-0.547,0.042-0.799,0.124-0.879c0.053-0.051,0.117-0.112,0.184-0.184l0.001-0.002
			l0.014-0.012c0.262-0.234,2.571-2.32,3.674-3.316l0.082-0.074c0.374-0.328,0.752-0.502,1.095-0.502
			c0.542,0,0.944,0.414,1.089,0.799c0.145,0.383,0.058,0.717-0.256,0.994l-0.283,0.248c-0.002,0.002-0.004,0.004-0.006,0.006
			l-0.002,0.002L22.037,58.444z M26.098,61.386c-0.019,0.017-0.036,0.034-0.055,0.052l-0.32,0.289
			c-0.284,0.256-0.569,0.326-0.896,0.219c-0.414-0.135-0.774-0.531-0.859-0.942c-0.074-0.357,0.069-0.688,0.432-1.009l0.455-0.396
			c0.012-0.01,0.021-0.021,0.033-0.031l2.979-2.62c0.714-0.631,1.421-0.694,1.891-0.168c0.066,0.074,0.627,0.741-0.058,1.36
			l-1.829,1.65c-0.02,0.018-0.04,0.033-0.059,0.051c-0.007,0.006-0.013,0.014-0.02,0.02l-1.674,1.51
			C26.112,61.375,26.105,61.38,26.098,61.386z M27.863,64.446c-0.144-0.159-0.421-0.573,0.034-1.009l1.825-1.647
			c0.138-0.118,0.271-0.212,0.396-0.276c0.005-0.002,0.011-0.006,0.017-0.008c0.735-0.394,1.134,0.064,1.239,0.214
			c0.134,0.192,0.299,0.571-0.114,0.942l-1.25,1.123c-0.004,0.004-0.009,0.009-0.014,0.013l-0.542,0.487
			C28.562,65.084,28.01,64.611,27.863,64.446z M49.458,57.248c-0.084,0.346-0.33,0.594-0.676,0.683
			c-0.573,0.146-1.299-0.171-1.964-0.854c-0.049-0.055-0.101-0.109-0.154-0.161l-5.144-5.086c-0.536-0.528-1.398-0.523-1.927,0.012
			c-0.529,0.535-0.525,1.398,0.01,1.928l5.137,5.076c0.008,0.009,0.018,0.018,0.025,0.027c0.205,0.211,0.319,0.492,0.32,0.798
			c0.002,0.322-0.121,0.622-0.344,0.847c-0.221,0.221-0.55,0.346-0.905,0.346c-0.005,0-0.011,0-0.015,0
			c-0.315-0.003-0.604-0.108-0.806-0.293c-0.085-0.109-0.179-0.217-0.28-0.319l-3.76-3.765c-0.533-0.533-1.396-0.533-1.928-0.002
			c-0.533,0.531-0.533,1.395-0.002,1.928l3.566,3.57c0.043,0.063,0.092,0.123,0.146,0.18l0.151,0.157
			c0.195,0.372,0.074,0.999-0.3,1.385c-0.578,0.595-1.391,0.071-1.97-0.474l-1.61-1.516c-0.549-0.516-1.411-0.49-1.927,0.059
			c-0.516,0.547-0.49,1.41,0.058,1.926l1.23,1.158c0.004,0.003,0.006,0.006,0.009,0.008c0.028,0.027,0.07,0.066,0.072,0.204
			c0.005,0.319-0.206,0.757-0.513,1.065c-0.448,0.448-1.194,0.432-1.696-0.037l-1.349-1.26l0.165-0.148
			c1.337-1.201,1.553-3.064,0.525-4.533c-0.334-0.478-0.753-0.849-1.224-1.105c0.663-1.308,0.478-2.895-0.592-4.09
			c-0.603-0.674-1.456-1.135-2.407-1.237c-0.027-0.342-0.102-0.687-0.23-1.026c-0.463-1.226-1.492-2.127-2.703-2.439
			c0.05-0.543-0.024-1.104-0.234-1.649c-0.574-1.49-2.008-2.491-3.57-2.491c-1.024,0-2.036,0.418-2.927,1.208l-3.479,3.093
			l-0.765-1.047l10.374-13.287l4.743,0.725l-0.718,0.466c-3.843,2.493-4.125,5.394-3.106,7.276c0.815,1.506,2.441,2.367,4.168,2.367
			c0.711,0,1.439-0.146,2.134-0.453c0.019-0.008,0.037-0.016,0.055-0.025l3.592-1.781l2.074,1.889
			c0.002,0.002,0.005,0.003,0.007,0.005s0.003,0.004,0.005,0.006l9.588,8.526C49.209,55.814,49.609,56.623,49.458,57.248z
			 M49.344,52.285l-8.725-7.759l-2.758-2.511c-0.414-0.377-1.02-0.463-1.522-0.213l-4.398,2.181
			c-1.195,0.515-2.37,0.024-2.778-0.729c-0.561-1.037,0.279-2.452,2.192-3.693l4.281-2.778c2.322-1.509,4.758-1.625,8.089-1.239
			l9.646,12.361C52.354,49.732,51.813,50.313,49.344,52.285z M66.035,41.566c-0.041,0.307-0.197,0.58-0.443,0.767l-7.273,5.538
			c-0.262,0.199-0.537,0.242-0.723,0.242c-0.383,0-0.734-0.169-0.963-0.461L45.531,33.427c-0.19-0.243-0.273-0.546-0.234-0.852
			c0.04-0.308,0.198-0.582,0.445-0.77l7.266-5.538c0.264-0.2,0.541-0.242,0.727-0.242c0.383,0,0.733,0.167,0.963,0.461
			l11.104,14.223C65.991,40.955,66.074,41.259,66.035,41.566z"/>
		<path fill="#3BB77E" d="M26.788,27.684c2.14,1.155,4.557,1.765,6.99,1.765c8.111,0,14.71-6.606,14.71-14.726
			c0-5.667-3.309-10.894-8.429-13.314C38.088,0.474,35.974,0,33.777,0c-8.109,0-14.707,6.604-14.707,14.723
			C19.071,20.137,22.027,25.103,26.788,27.684z M33.777,2.726c1.789,0,3.51,0.385,5.115,1.146c4.173,1.973,6.869,6.232,6.869,10.851
			c0,6.617-5.377,12.001-11.984,12.001c-1.983,0-3.952-0.498-5.693-1.437c-3.879-2.103-6.288-6.151-6.288-10.564
			C21.796,8.107,27.171,2.726,33.777,2.726z"/>
		<path fill="#3BB77E" d="M7.015,34.854c0.251,0.2,0.551,0.297,0.849,0.297c0.4,0,0.797-0.176,1.066-0.513l0.015-0.02
			c0.47-0.588,0.374-1.446-0.215-1.915s-1.446-0.374-1.915,0.215l-0.016,0.02C6.33,33.526,6.426,34.384,7.015,34.854z"/>
	</g>
</g>
<image overflow="visible" width="512" height="512" xlink:href="../Downloads/turkish-lira.png"  transform="matrix(0.0549 0 0 0.0549 19.7354 0.7686)">
</image>
</svg>
