{
  "profiles": {
    "ECommerce.MarketPlace.CicekSepeti.Operation": {
      "commandName": "Project",
      "launchBrowser": true,
      "environmentVariables": {
        "ASPNETCORE_ENVIRONMENT": "Development"
      },
      "applicationUrl": "https://localhost:59372;http://localhost:59373"
    }
  }
}