<svg xmlns="http://www.w3.org/2000/svg" width="34" height="29.75" viewBox="0 0 34 29.75">
  <path id="icon-menu-2" d="M29.4-27.625c-6.368,0-11.714,5.273-13.1,12.332-2.324-4.821-6.687-8.082-11.7-8.082H0v1.063C0-13.527,6.036-6.375,13.461-6.375h2.477V1.594a.533.533,0,0,0,.531.531h1.063a.533.533,0,0,0,.531-.531V-10.625h2.477C27.964-10.625,34-17.777,34-26.562v-1.062ZM13.461-8.5C7.5-8.5,2.6-14.131,2.158-21.25H4.6c5.957,0,10.851,5.631,11.3,12.75Zm7.079-4.25H18.1c.445-7.119,5.346-12.75,11.3-12.75h2.444C31.4-18.381,26.5-12.75,20.539-12.75Z" transform="translate(0 27.625)" fill="#fff"/>
</svg>
