<svg xmlns="http://www.w3.org/2000/svg" width="34" height="34" viewBox="0 0 34 34">
  <path id="icon-menu-7" d="M12.653-15.886A3.866,3.866,0,0,0,9.563-12.01v1.916a.531.531,0,0,1-.531.531H6.375V-23.014A6.617,6.617,0,0,0,.343-29.741C.248-29.746.095-29.75,0-29.75a6.377,6.377,0,0,0-6.375,6.375V-17H-9.031a.531.531,0,0,1-.531-.531v-1.916a3.866,3.866,0,0,0-3.091-3.876,4.482,4.482,0,0,0-.623-.052A3.726,3.726,0,0,0-17-19.656v2.125A7.972,7.972,0,0,0-9.031-9.562h2.656V3.188A1.063,1.063,0,0,0-5.312,4.25H5.313A1.063,1.063,0,0,0,6.375,3.188V-2.125H9.031A7.972,7.972,0,0,0,17-10.094v-2.125a3.726,3.726,0,0,0-3.724-3.719A4.482,4.482,0,0,0,12.653-15.886Zm-19.028,4.2H-9.031a5.854,5.854,0,0,1-5.844-5.844v-2.125a1.594,1.594,0,0,1,1.594-1.594,1.594,1.594,0,0,1,1.594,1.594v2.125a2.657,2.657,0,0,0,2.656,2.656h2.656ZM4.25,2.125h-8.5v-25.5A4.252,4.252,0,0,1,0-27.625a4.252,4.252,0,0,1,4.25,4.25ZM14.875-10.094A5.854,5.854,0,0,1,9.031-4.25H6.375V-7.437H9.031a2.657,2.657,0,0,0,2.656-2.656v-2.125a1.594,1.594,0,0,1,1.594-1.594,1.594,1.594,0,0,1,1.594,1.594ZM-1.062-21.25a1.063,1.063,0,0,0-1.062,1.063,1.063,1.063,0,0,0,1.063,1.063A1.063,1.063,0,0,0,0-20.187,1.063,1.063,0,0,0-1.062-21.25ZM1.063-6.375A1.063,1.063,0,0,0,0-5.312,1.063,1.063,0,0,0,1.063-4.25,1.063,1.063,0,0,0,2.125-5.312,1.063,1.063,0,0,0,1.063-6.375Z" transform="translate(17 29.75)" fill="#fff"/>
</svg>
